//////////////////////////////////////////////////////////////////////////////////////////////////////////
// AVATARS SCRIPT MODULE - Implementation
//////////////////////////////////////////////////////////////////////////////////////////////////////////
#define AVATAR_PERSONAL_COUNT 10

// Master avatar lookup table
Avatar Avatars_Avatars[AVATAR_COUNT];
// Personal avatars
AvatarLookup personalAvatars[AVATAR_PERSONAL_COUNT];

export Avatars_Avatars; // Avatar Avatars_Avatars[AVATAR_COUNT];

TextField* txtAvatarPopupInput;
export txtAvatarPopupInput;

// Current player avatar
pAvatar playerAvatar;

// Constants for laying out the avatars selection screen
#define AVATAR_GUI_SLOTS           36 // How many avatars to display (max) on one screen (21=7x3) TODO: Change to 9x4=36
#define AVATAR_GUI_WIDTH          105 // How wide each avatar is
#define AVATAR_GUI_HEIGHT         130 // How tall each avatar is
#define AVATAR_GUI_HSPACING         0 // Horizontal spacing between each avatar
#define AVATAR_GUI_VSPACING         0 // Vertical spacing between each avatar
#define AVATAR_GUI_SCALE          100 // How to scale each avatar (applied on top of the avatar scaling factor)
#define AVATAR_GUI_SPRITE_OFFSET   -6 // To shift avatar sprites up/down in their slot (up is negative)

#define AVATARS_GUI_Y_OFFSET        8 // To shift the whole table of avatars up/down
#define AVATARS_GUI_TOP_BORDER     20 // Border on top of table (to avoid clipping of characters that don't fit)
#define AVATARS_GUI_SIDE_BORDER    20 // Border on each side of table
#define AVATARS_GUI_BOTTOM_BORDER   0 // Border on bottom of table

#define AVATARS_BUTTON_SPRITE                 66  // Sprite index of regular button
#define AVATARS_BUTTON_DISABLED_SPRITE      2266  // Sprite index of disabled button
#define AVATARS_SIDE_BUTTON_SPRITE           970  // Sprite index of side button
#define AVATARS_SIDE_BUTTON_DISABLED_SPRITE 2863  // Sprite index of disabled side button


//////////////////////////////////////////////////////////////////////////////////////////////////////////
// Setup
//////////////////////////////////////////////////////////////////////////////////////////////////////////

void disableSound()
{
  for(int i=0; i<AVATAR_COUNT; i++)
  {
    int walkView = Avatars_Avatars[i].WalkView;
    if(walkView != -1)
    {
      int loopCount = Game.GetLoopCountForView(walkView);
      for(int j=0; j<loopCount; j++)
      {
        int frameCount = Game.GetFrameCountForLoop(walkView, j);
        for(int k=0; k<frameCount; k++)
        {
          ViewFrame* viewFrame = Game.GetViewFrame(walkView, j, k);
          viewFrame.LinkedAudio = null;
        }
      }
    }
  }
}

/// Populates the lists of avatars (runs at startup, cf. Avatars.asc game_start())
void initAvatarData()
{

  playerAvatar = -1;

  // Initialize the avatars list
  int i=0;
  while(i<AVATAR_COUNT)
  {
    Avatars_Avatars[i].Name = "";
    Avatars_Avatars[i].Source = "";
    Avatars_Avatars[i].WalkView = -1;
    Avatars_Avatars[i].TalkView = -1;
    Avatars_Avatars[i].SpecialView = -1;
    Avatars_Avatars[i].IsMale = false;
    Avatars_Avatars[i].Group = "";
    Avatars_Avatars[i].ScalingFactor = 100;
    i++;
  }

  i=0;
  // Populate the AGS Avatars
  // For each, comment lists whether it's ok to include in future ceremonies, creator/rights holder/permission granter, and license
  // Avatars that are not to be included in the open-source release of the ceremony are marked "NOT FOR RELEASE"

  /*
  Avatars_Avatars[i].Name = "Clod";                           // NOT FOR RELEASE
  Avatars_Avatars[i].Source = "Troll Song";                   // Y - by CaptainD (sprites by AprilSkies) - (all rights reserved)
  Avatars_Avatars[i].WalkView = VCLODW;
  Avatars_Avatars[i].TalkView = VCLODW;
  Avatars_Avatars[i].IsMale = true;
  Avatars_Avatars[i].Group = "ags";
  Avatars_Avatars[i].ScalingFactor = 100;
  i++;
  */

  Avatars_Avatars[i].Name = "Roger";
  Avatars_Avatars[i].Source = "(by Pumaman)";                 // Y - by Chris Jones (Pumaman) - (Artistic License 2.0)
  Avatars_Avatars[i].WalkView = VROGERW;
  Avatars_Avatars[i].TalkView = VROGERW;
  Avatars_Avatars[i].IsMale = true;
  Avatars_Avatars[i].Group = "ags";
  Avatars_Avatars[i].ScalingFactor = 124;
  i++;

  Avatars_Avatars[i].Name = "Merrick";
  Avatars_Avatars[i].Source = "Byte of the Draculator II";    // Y - by SWARMAGS (sprites by Scarab) - (AGS Open Source)
  Avatars_Avatars[i].WalkView = VMERRICKW;
  Avatars_Avatars[i].TalkView = VMERRICKT;
  Avatars_Avatars[i].IsMale = true;
  Avatars_Avatars[i].Group = "ags";
  Avatars_Avatars[i].ScalingFactor = 100;
  i++;

  Avatars_Avatars[i].Name = "Donald Dowell";
  Avatars_Avatars[i].Source = "Donald Dowell and the Ghost of Barker Manor";    // Y - by AprilSkies - (CC0 1.0 public domain)
  Avatars_Avatars[i].WalkView = VDONALDDOWW;
  Avatars_Avatars[i].TalkView = VDONALDDOWW;
  Avatars_Avatars[i].IsMale = true;
  Avatars_Avatars[i].Group = "ags";
  Avatars_Avatars[i].ScalingFactor = 36;
  i++;

  Avatars_Avatars[i].Name = "Nelly Cootalot";
  Avatars_Avatars[i].Source = "Spoonbeaks Ahoy!";             // Y - by Alasdair Beckett (Ali) - (all rights reserved)
  Avatars_Avatars[i].WalkView = VNELLYW;
  Avatars_Avatars[i].TalkView = VNELLYT;
  Avatars_Avatars[i].SpecialView = VNELLYX;
  Avatars_Avatars[i].IsMale = false;
  Avatars_Avatars[i].Group = "ags";
  Avatars_Avatars[i].ScalingFactor = 50;
  i++;

  Avatars_Avatars[i].Name = "Ben Jordan";
  Avatars_Avatars[i].Source = "Ben Jordan series";            // Y - by Grundislav - (CC BY-NC-SA 4.0)
  Avatars_Avatars[i].WalkView = VBENJORDANW;
  Avatars_Avatars[i].TalkView = VBENJORDANW;
  Avatars_Avatars[i].IsMale = true;
  Avatars_Avatars[i].Group = "ags";
  Avatars_Avatars[i].ScalingFactor = 80;
  i++;

  Avatars_Avatars[i].Name = "Kentucky Scott";
  Avatars_Avatars[i].Source = "Blue Lobe Inc.";               // Y - by Baronic Games (Baron & Kastchey) - (all rights reserved)
  Avatars_Avatars[i].WalkView = VKENTYW;
  Avatars_Avatars[i].TalkView = VKENTYT;
  Avatars_Avatars[i].IsMale = true;
  Avatars_Avatars[i].Group = "ags";
  Avatars_Avatars[i].ScalingFactor = 45;
  i++;

  /*
  Avatars_Avatars[i].Name = "Rokk";                           // NOT FOR RELEASE
  Avatars_Avatars[i].Source = "Troll Song";                   // Y - by CaptainD (sprites by AprilSkies) - (all rights reserved)
  Avatars_Avatars[i].WalkView = VROKKW;
  Avatars_Avatars[i].TalkView = VROKKW;
  Avatars_Avatars[i].IsMale = true;
  Avatars_Avatars[i].Group = "ags";
  Avatars_Avatars[i].ScalingFactor = 100;
  i++;
  */

  Avatars_Avatars[i].Name = "Lizaigne";
  Avatars_Avatars[i].Source = "A Night in Berry";             // Y - by Creamy - (CC BY-SA 4.0)
  Avatars_Avatars[i].WalkView = VLIZAIGNEW;
  Avatars_Avatars[i].TalkView = VLIZAIGNEW;
  Avatars_Avatars[i].IsMale = false;
  Avatars_Avatars[i].Group = "ags";
  Avatars_Avatars[i].ScalingFactor = 28;
  i++;

  Avatars_Avatars[i].Name = "Gary";
  Avatars_Avatars[i].Source = "This Odd Feeling";             // Y - by Wyz - (CC BY-NC-SA 4.0)
  Avatars_Avatars[i].WalkView = VGARYW;
  Avatars_Avatars[i].TalkView = VGARYT;
  Avatars_Avatars[i].IsMale = true;
  Avatars_Avatars[i].Group = "ags";
  Avatars_Avatars[i].ScalingFactor = 60;
  i++;

  /*
  Avatars_Avatars[i].Name = "Heroine";                        // NOT FOR RELEASE
  Avatars_Avatars[i].Source = "Heroine's Quest";              // Y - by Crystal Shard (Radiant) - (all rights reserved)
  Avatars_Avatars[i].WalkView = VHEROINEW;
  Avatars_Avatars[i].TalkView = VHEROINEW;
  Avatars_Avatars[i].SpecialView = VHEROINEX;
  Avatars_Avatars[i].IsMale = false;
  Avatars_Avatars[i].Group = "ags";
  Avatars_Avatars[i].ScalingFactor = 100;
  i++;

  Avatars_Avatars[i].Name = "Eitri";                          // NOT FOR RELEASE
  Avatars_Avatars[i].Source = "Heroine's Quest";              // Y - by Crystal Shard (Radiant) - (all rights reserved)
  Avatars_Avatars[i].WalkView = VEITRIW;
  Avatars_Avatars[i].TalkView = VEITRIW;
  Avatars_Avatars[i].SpecialView = VEITRIX;
  Avatars_Avatars[i].IsMale = true;
  Avatars_Avatars[i].Group = "ags";
  Avatars_Avatars[i].ScalingFactor = 100;
  i++;

  Avatars_Avatars[i].Name = "Aurvandel";                      // NOT FOR RELEASE
  Avatars_Avatars[i].Source = "Heroine's Quest";              // Y - by Crystal Shard (Radiant) - (all rights reserved)
  Avatars_Avatars[i].WalkView = VAURVANDELW;
  Avatars_Avatars[i].TalkView = VAURVANDELW;
  Avatars_Avatars[i].SpecialView = VAURVANDELX;
  Avatars_Avatars[i].IsMale = true;
  Avatars_Avatars[i].Group = "ags";
  Avatars_Avatars[i].ScalingFactor = 90;
  i++;
  */

  Avatars_Avatars[i].Name = "Charlie Foxtrot";
  Avatars_Avatars[i].Source = "Charlie Foxtrot & The Galaxy of Tomorrow"; // Y - by Baron - (all rights reserved)
  Avatars_Avatars[i].WalkView = VCHARLIEFOXW;
  Avatars_Avatars[i].TalkView = VCHARLIEFOXW;
  Avatars_Avatars[i].IsMale = true;
  Avatars_Avatars[i].Group = "ags";
  Avatars_Avatars[i].ScalingFactor = 75;
  i++;

  Avatars_Avatars[i].Name = "Madd Vollkcicler";
  Avatars_Avatars[i].Source = "(by Ascovel)";                 // Y - by Ascovel - (CC0 1.0 public domain)
  Avatars_Avatars[i].WalkView = VFORMICAW;
  Avatars_Avatars[i].TalkView = VFORMICAW;
  Avatars_Avatars[i].IsMale = true;
  Avatars_Avatars[i].Group = "ags";
  i++;

  Avatars_Avatars[i].Name = "Hitman";
  Avatars_Avatars[i].Source = "The Second Man (unreleased)";  // Y - by Cianty - (CC BY 4.0)
  Avatars_Avatars[i].WalkView = VCIANTYW;
  Avatars_Avatars[i].TalkView = VCIANTYW;
  Avatars_Avatars[i].IsMale = true;
  Avatars_Avatars[i].Group = "ags";
  Avatars_Avatars[i].ScalingFactor = 67;
  i++;

  Avatars_Avatars[i].Name = "Woo the Witch";
  Avatars_Avatars[i].Source = "Witchy Woo";                   // Y - by Dropped Monocle Games - (all rights reserved)
  Avatars_Avatars[i].WalkView = VWOOW;
  Avatars_Avatars[i].TalkView = VWOOT;
  Avatars_Avatars[i].IsMale = false;
  Avatars_Avatars[i].Group = "ags";
  Avatars_Avatars[i].ScalingFactor = 66;
  i++;

  Avatars_Avatars[i].Name = "The Bum";
  Avatars_Avatars[i].Source = "The Bum";                      // Y - by Gribbler - (all rights reserved)
  Avatars_Avatars[i].WalkView = VBUMW;
  Avatars_Avatars[i].TalkView = VBUMT;
  Avatars_Avatars[i].IsMale = true;
  Avatars_Avatars[i].Group = "ags";
  Avatars_Avatars[i].ScalingFactor = 120;
  i++;

  Avatars_Avatars[i].Name = "Nell";
  Avatars_Avatars[i].Source = "Heatwave";                     // Y - by Scavenger - (all rights reserved)
  Avatars_Avatars[i].WalkView = VNELLW;
  Avatars_Avatars[i].TalkView = VNELLT;
  Avatars_Avatars[i].IsMale = false;
  Avatars_Avatars[i].Group = "ags";
  Avatars_Avatars[i].ScalingFactor = 85;
  i++;

  Avatars_Avatars[i].Name = "David Poulson";
  Avatars_Avatars[i].Source = "Conspirocracy";                // Y - by Little Red Dog Games (KodiakBehr) - (CC BY 4.0)
  Avatars_Avatars[i].WalkView = VDAVIDW;
  Avatars_Avatars[i].TalkView = VDAVIDT;
  Avatars_Avatars[i].IsMale = true;
  Avatars_Avatars[i].Group = "ags";
  Avatars_Avatars[i].ScalingFactor = 75;
  i++;

  Avatars_Avatars[i].Name = "Nikee";
  Avatars_Avatars[i].Source = "Ponderabilia";                 // Y - by moloko - (all rights reserved)
  Avatars_Avatars[i].WalkView = VNIKEEDW;
  Avatars_Avatars[i].TalkView = VNIKEEDW;
  Avatars_Avatars[i].IsMale = false;
  Avatars_Avatars[i].Group = "ags";
  Avatars_Avatars[i].ScalingFactor = 120;
  i++;

  Avatars_Avatars[i].Name = "Mr. Colossal Man";
  Avatars_Avatars[i].Source = "(by Mr. Colossal)";            // Y? - Walkcycle template by Mr. Colossal - (AGS Open Source?)
  Avatars_Avatars[i].WalkView = VMRCOLOSSALW;
  Avatars_Avatars[i].TalkView = VMRCOLOSSALW;
  Avatars_Avatars[i].IsMale = true;
  Avatars_Avatars[i].Group = "ags";
  Avatars_Avatars[i].ScalingFactor = 66;
  i++;

  Avatars_Avatars[i].Name = "Anna";
  Avatars_Avatars[i].Source = "Resonance";                    // Y - by xii games/Wadjet Eye Games (Vince Twelve), sprites by Shane Stevens (ProgZmax) - (all rights reserved)
  Avatars_Avatars[i].WalkView = VANNAW;
  Avatars_Avatars[i].TalkView = VANNAT;
  Avatars_Avatars[i].IsMale = false;
  Avatars_Avatars[i].Group = "ags";
  Avatars_Avatars[i].ScalingFactor = 70;
  i++;

  Avatars_Avatars[i].Name = "Bennet";
  Avatars_Avatars[i].Source = "Resonance";                    // Y - by xii games/Wadjet Eye Games (Vince Twelve), sprites by Shane Stevens (ProgZmax) - (all rights reserved)
  Avatars_Avatars[i].WalkView = VBENNETW;
  Avatars_Avatars[i].TalkView = VBENNETT;
  Avatars_Avatars[i].IsMale = true;
  Avatars_Avatars[i].Group = "ags";
  Avatars_Avatars[i].ScalingFactor = 70;
  i++;

  Avatars_Avatars[i].Name = "Ed";
  Avatars_Avatars[i].Source = "Resonance";                    // Y - by xii games/Wadjet Eye Games (Vince Twelve), sprites by Shane Stevens (ProgZmax) - (all rights reserved)
  Avatars_Avatars[i].WalkView = VEDW;
  Avatars_Avatars[i].TalkView = VEDT;
  Avatars_Avatars[i].IsMale = true;
  Avatars_Avatars[i].Group = "ags";
  Avatars_Avatars[i].ScalingFactor = 70;
  i++;

  Avatars_Avatars[i].Name = "Ray";
  Avatars_Avatars[i].Source = "Resonance";                    // Y - by xii games/Wadjet Eye Games (Vince Twelve), sprites by Shane Stevens (ProgZmax) - (all rights reserved)
  Avatars_Avatars[i].WalkView = VRAYW;
  Avatars_Avatars[i].TalkView = VRAYT;
  Avatars_Avatars[i].IsMale = true;
  Avatars_Avatars[i].Group = "ags";
  Avatars_Avatars[i].ScalingFactor = 70;
  i++;

  Avatars_Avatars[i].Name = "Sara";
  Avatars_Avatars[i].Source = "Errand";                       // Y - by Crystal Shard (Radiant) - (CC BY-NC-SA 4.0)
  Avatars_Avatars[i].WalkView = VSARAW;
  Avatars_Avatars[i].TalkView = VSARAW;
  Avatars_Avatars[i].IsMale = false;
  Avatars_Avatars[i].Group = "ags";
  Avatars_Avatars[i].ScalingFactor = 50;
  i++;

  Avatars_Avatars[i].Name = "Oceanspirit Dennis";
  Avatars_Avatars[i].Source = "OSD: Mighty Viking";           //  Y - by Big GC (after Ben304) - (AGS Open Source)
  Avatars_Avatars[i].WalkView = VOSDVIKINGW;
  Avatars_Avatars[i].TalkView = VOSDVIKINGT;
  Avatars_Avatars[i].IsMale = true;
  Avatars_Avatars[i].Group = "ags";
  Avatars_Avatars[i].ScalingFactor = 75;
  i++;

  Avatars_Avatars[i].Name = "Life Partner Ray";
  Avatars_Avatars[i].Source = "The Naked and the Ninja";      // Y - by Ponch - (AGS Open Source)
  Avatars_Avatars[i].WalkView = VLPRAYW;
  Avatars_Avatars[i].TalkView = VLPRAYW;
  Avatars_Avatars[i].SpecialView = VLPRAYX;
  Avatars_Avatars[i].IsMale = true;
  Avatars_Avatars[i].Group = "ags";
  Avatars_Avatars[i].ScalingFactor = 130;
  i++;

  /*
  Avatars_Avatars[i].Name = "The Imp";                        // NOT FOR RELEASE
  Avatars_Avatars[i].Source = "Quest for Yrolg";              // Y - by Crystal Shard (Radiant) - (all rights reserved)
  Avatars_Avatars[i].WalkView = VIMPW;
  Avatars_Avatars[i].TalkView = VIMPW;
  Avatars_Avatars[i].IsMale = true;
  Avatars_Avatars[i].Group = "ags";
  Avatars_Avatars[i].ScalingFactor = 50;
  i++;
  */

  Avatars_Avatars[i].Name = "Minifeg";
  Avatars_Avatars[i].Source = "Minifeg: The Search";          // Y - by Sandra Almeida (Cassiebsg) - (CC BY 4.0)
  Avatars_Avatars[i].WalkView = VMINIFEGW;
  Avatars_Avatars[i].TalkView = VMINIFEGT;
  Avatars_Avatars[i].IsMale = true;
  Avatars_Avatars[i].Group = "ags";
  Avatars_Avatars[i].ScalingFactor = 44;
  i++;

  Avatars_Avatars[i].Name = "Frederick Loren";
  Avatars_Avatars[i].Source = "(by WRK)";                     // Y - by WRK - (CC0 1.0 public domain)
  Avatars_Avatars[i].WalkView = VLORENW;
  Avatars_Avatars[i].TalkView = VLORENT;
  Avatars_Avatars[i].IsMale = true;
  Avatars_Avatars[i].Group = "ags";
  Avatars_Avatars[i].ScalingFactor = 140;
  i++;

  Avatars_Avatars[i].Name = "Edgar Allan Poe";
  Avatars_Avatars[i].Source = "(by WRK)";                     // Y - by WRK - (CC0 1.0 public domain)
  Avatars_Avatars[i].WalkView = VPOEW;
  Avatars_Avatars[i].TalkView = VPOET;
  Avatars_Avatars[i].IsMale = true;
  Avatars_Avatars[i].Group = "ags";
  Avatars_Avatars[i].ScalingFactor = 140;
  i++;

  Avatars_Avatars[i].Name = "Dung Shoveler";
  Avatars_Avatars[i].Source = "Besieged";                     // Y - by Baron - (all rights reserved)
  Avatars_Avatars[i].WalkView = VDUNGSHOVW;
  Avatars_Avatars[i].TalkView = VDUNGSHOVW;
  Avatars_Avatars[i].IsMale = true;
  Avatars_Avatars[i].Group = "ags";
  Avatars_Avatars[i].ScalingFactor = 75;
  i++;

  Avatars_Avatars[i].Name = "Ashra";
  Avatars_Avatars[i].Source = "SchattenReyze (unreleased)";   // Y - by abstauber - (CC BY-NC-SA 4.0)
  Avatars_Avatars[i].WalkView = VASHRAW;
  Avatars_Avatars[i].TalkView = VASHRAW;
  Avatars_Avatars[i].IsMale = false;
  Avatars_Avatars[i].Group = "ags";
  Avatars_Avatars[i].ScalingFactor = 100;
  i++;

  Avatars_Avatars[i].Name = "Lucius";
  Avatars_Avatars[i].Source = "SchattenReyze (unreleased)";   // Y - by abstauber - (CC BY-NC-SA 4.0)
  Avatars_Avatars[i].WalkView = VLUCIUSW;
  Avatars_Avatars[i].TalkView = VLUCIUSW;
  Avatars_Avatars[i].IsMale = true;
  Avatars_Avatars[i].Group = "ags";
  Avatars_Avatars[i].ScalingFactor = 90;
  i++;

  Avatars_Avatars[i].Name = "Mila";
  Avatars_Avatars[i].Source = "SchattenReyze (unreleased)";   // Y - by abstauber - (CC BY-NC-SA 4.0)
  Avatars_Avatars[i].WalkView = VMILAW;
  Avatars_Avatars[i].TalkView = VMIKAW;
  Avatars_Avatars[i].IsMale = false;
  Avatars_Avatars[i].Group = "ags";
  Avatars_Avatars[i].ScalingFactor = 90;
  i++;

  /*
  Avatars_Avatars[i].Name = "Julie";                          // NOT FOR RELEASE
  Avatars_Avatars[i].Source = "Quasar";                       // Y - by Crystal Shard (Radiant) - (all rights reserved)
  Avatars_Avatars[i].WalkView = VJULIEW;
  Avatars_Avatars[i].TalkView = VJULIEW;
  Avatars_Avatars[i].IsMale = false;
  Avatars_Avatars[i].Group = "ags";
  Avatars_Avatars[i].ScalingFactor = 47;
  i++;
  */

  Avatars_Avatars[i].Name = "Denlet";
  Avatars_Avatars[i].Source = "Oceanspirit Danish";           // Y - by Crystal Shard (Radiant) - (CC BY-NC-SA 4.0)
  Avatars_Avatars[i].WalkView = VDENLETW;
  Avatars_Avatars[i].TalkView = VDENLETT;
  Avatars_Avatars[i].IsMale = true;
  Avatars_Avatars[i].Group = "ags";
  Avatars_Avatars[i].ScalingFactor = 70;
  i++;

  /*
  Avatars_Avatars[i].Name = "PFC Limey Lizard";                  // NOT FOR RELEASE
  Avatars_Avatars[i].Source = "Limey Lizard: Waste Wizard";      // Y - ProgZmax - (all rights reserved)
  Avatars_Avatars[i].WalkView = VLIMEYW;
  Avatars_Avatars[i].TalkView = VLIMEYT;
  Avatars_Avatars[i].IsMale = true;
  Avatars_Avatars[i].Group = "ags";
  Avatars_Avatars[i].ScalingFactor = 75;
  i++;
  */

  Avatars_Avatars[i].Name = "Linara";
  Avatars_Avatars[i].Source = "The Witch, the Wizard and the Blue Cup";    // Y - by Sinitrena - (CC BY-SA 4.0)
  Avatars_Avatars[i].WalkView = VLINARAW;
  Avatars_Avatars[i].TalkView = VLINARAW;
  Avatars_Avatars[i].IsMale = false;
  Avatars_Avatars[i].Group = "ags";
  Avatars_Avatars[i].ScalingFactor = 120;
  i++;

  Avatars_Avatars[i].Name = "Paige Rowsdower";
  Avatars_Avatars[i].Source = "2034 A.C. (After Canada)";     // Y - by Ponch - (all rights reserved)
  Avatars_Avatars[i].WalkView = VPAIGEW;
  Avatars_Avatars[i].TalkView = VPAIGEW;
  Avatars_Avatars[i].IsMale = false;
  Avatars_Avatars[i].Group = "ags";
  Avatars_Avatars[i].ScalingFactor = 120;
  i++;

  // 2014 Nominees
  Avatars_Avatars[i].Name = "Lou";
  Avatars_Avatars[i].Source = "A Date in the Park";              // Y - by Cloak and Dagger Games (shaun9991) - (CC BY 4.0)
  Avatars_Avatars[i].WalkView = VLOUW;
  Avatars_Avatars[i].TalkView = VLOUW;
  Avatars_Avatars[i].IsMale = true;
  Avatars_Avatars[i].Group = "ags";
  Avatars_Avatars[i].ScalingFactor = 66;
  i++;

  Avatars_Avatars[i].Name = "Winston";
  Avatars_Avatars[i].Source = "Mudlarks";                        // Y - by Cloak and Dagger Games (shaun9991) - (CC BY 4.0)
  Avatars_Avatars[i].WalkView = VWINSTONW;
  Avatars_Avatars[i].TalkView = VWINSTONW;
  Avatars_Avatars[i].IsMale = true;
  Avatars_Avatars[i].Group = "ags";
  Avatars_Avatars[i].ScalingFactor = 66;
  i++;

  Avatars_Avatars[i].Name = "Atl";
  Avatars_Avatars[i].Source = "Goat Herd and the Gods";          // Y - by Dropped Monocle Games - (all rights reserved)
  Avatars_Avatars[i].WalkView = VATLW;
  Avatars_Avatars[i].TalkView = VATLT;
  Avatars_Avatars[i].IsMale = true;
  Avatars_Avatars[i].Group = "ags";
  Avatars_Avatars[i].ScalingFactor = 40;
  i++;

  Avatars_Avatars[i].Name = "The Pig";
  Avatars_Avatars[i].Source = "All Pigs Deserve to Burn in Hell";   // Y - by BSP - (CC BY 4.0)
  Avatars_Avatars[i].WalkView = VPIGW;
  Avatars_Avatars[i].TalkView = VPIGT;
  Avatars_Avatars[i].IsMale = true;
  Avatars_Avatars[i].Group = "ags";
  Avatars_Avatars[i].ScalingFactor = 80;
  i++;

  /*
  Avatars_Avatars[i].Name = "Alfie Banks";                       // NOT FOR RELEASE
  Avatars_Avatars[i].Source = "A Golden Wake";                   // Y - by Grundislav Games/Wadjet Eye Games  (Grundislav) - (all rights reserved)
  Avatars_Avatars[i].WalkView = VALFIEW;
  Avatars_Avatars[i].TalkView = VALFIEW;
  Avatars_Avatars[i].IsMale = true;
  Avatars_Avatars[i].Group = "ags";
  Avatars_Avatars[i].ScalingFactor = 80;
  i++;
  */

  Avatars_Avatars[i].Name = "Freja";
  Avatars_Avatars[i].Source = "The Samaritan Paradox";           // Y - by Faravid Games (Andail) - (all rights reserved)
  Avatars_Avatars[i].WalkView = VFREJAW;
  Avatars_Avatars[i].TalkView = VFREJAW;
  Avatars_Avatars[i].IsMale = false;
  Avatars_Avatars[i].Group = "ags";
  Avatars_Avatars[i].ScalingFactor = 85;
  i++;

  Avatars_Avatars[i].Name = "Ord";
  Avatars_Avatars[i].Source = "The Samaritan Paradox";           // Y - by Faravid Games (Andail) - (all rights reserved)
  Avatars_Avatars[i].WalkView = VORDW;
  Avatars_Avatars[i].TalkView = VORDW;
  Avatars_Avatars[i].IsMale = true;
  Avatars_Avatars[i].Group = "ags";
  Avatars_Avatars[i].ScalingFactor = 85;
  i++;

  Avatars_Avatars[i].Name = "Joey";
  Avatars_Avatars[i].Source = "The Blackwell Epiphany";          // Y - by Wadjet Eye Games (Dave Gilbert), sprites by Ben304 - (CC BY 4.0)
  Avatars_Avatars[i].WalkView = VJOEYW;
  Avatars_Avatars[i].TalkView = VJOEYW;
  Avatars_Avatars[i].IsMale = true;
  Avatars_Avatars[i].Group = "ags";
  Avatars_Avatars[i].ScalingFactor = 35;
  i++;

  Avatars_Avatars[i].Name = "Rosa";
  Avatars_Avatars[i].Source = "The Blackwell Epiphany";          // Y - by Wadjet Eye Games (Dave Gilbert), sprites by Ben304 - (CC BY 4.0)
  Avatars_Avatars[i].WalkView = VROSAW;
  Avatars_Avatars[i].TalkView = VROSAW;
  Avatars_Avatars[i].IsMale = false;
  Avatars_Avatars[i].Group = "ags";
  Avatars_Avatars[i].ScalingFactor = 35;
  i++;

  /*
  Avatars_Avatars[i].Name = "Mr. Roehm";                         // NOT FOR RELEASE
  Avatars_Avatars[i].Source = "Quest for Infamy";                // Y - by Infamous Quests (Blackthorne) - (all rights reserved)
  Avatars_Avatars[i].WalkView = VROEHMW;
  Avatars_Avatars[i].TalkView = VROEHMW;
  Avatars_Avatars[i].SpecialView = VROEHMX;
  Avatars_Avatars[i].IsMale = true;
  Avatars_Avatars[i].Group = "ags";
  Avatars_Avatars[i].ScalingFactor = 110;
  i++;
  */

  Avatars_Avatars[i].Name = "Sisyphus";
  Avatars_Avatars[i].Source = "Sisyphus Reborn";                 // Y - by Emont - (CC BY-NC-SA 4.0)
  Avatars_Avatars[i].WalkView = VSISYPHUSW;
  Avatars_Avatars[i].TalkView = VSISYPHUST;
  Avatars_Avatars[i].IsMale = true;
  Avatars_Avatars[i].Group = "ags";
  Avatars_Avatars[i].ScalingFactor = 65;
  i++;

  Avatars_Avatars[i].Name = "Pinkaholic";
  Avatars_Avatars[i].Source = "Don't Drink the Pink";            // Y - by Hobo - (CC0 1.0 public domain)
  Avatars_Avatars[i].WalkView = VDRINKERW;
  Avatars_Avatars[i].TalkView = VDRINKERT;
  Avatars_Avatars[i].IsMale = true;
  Avatars_Avatars[i].Group = "ags";
  Avatars_Avatars[i].ScalingFactor = 90;
  i++;

  // 2017 Additions
  Avatars_Avatars[i].Name = "Roger Blond";
  Avatars_Avatars[i].Source = "(by ProgZmax and Hobo)";          // Y - by ProgZmax and Hobo - (CC BY 4.0)
  Avatars_Avatars[i].WalkView = VNUROGMYW;
  Avatars_Avatars[i].TalkView = VNUROGMYT;
  Avatars_Avatars[i].IsMale = true;
  Avatars_Avatars[i].Group = "ags";
  Avatars_Avatars[i].ScalingFactor = 110;
  i++;

  Avatars_Avatars[i].Name = "Roger Brown";
  Avatars_Avatars[i].Source = "(by ProgZmax and Hobo)";          // Y - by ProgZmax and Hobo - (CC BY 4.0)
  Avatars_Avatars[i].WalkView = VNUROGMBW;
  Avatars_Avatars[i].TalkView = VNUROGMBT;
  Avatars_Avatars[i].IsMale = true;
  Avatars_Avatars[i].Group = "ags";
  Avatars_Avatars[i].ScalingFactor = 110;
  i++;

  Avatars_Avatars[i].Name = "Roger Black";
  Avatars_Avatars[i].Source = "(by ProgZmax and Hobo)";          // Y - by ProgZmax and Hobo - (CC BY 4.0)
  Avatars_Avatars[i].WalkView = VNUROGMKW;
  Avatars_Avatars[i].TalkView = VNUROGMKT;
  Avatars_Avatars[i].IsMale = true;
  Avatars_Avatars[i].Group = "ags";
  Avatars_Avatars[i].ScalingFactor = 110;
  i++;

  Avatars_Avatars[i].Name = "Roger Femme Blonde";
  Avatars_Avatars[i].Source = "(by ProgZmax and Hobo)";          // Y - by ProgZmax and Hobo - (CC BY 4.0)
  Avatars_Avatars[i].WalkView = VNUROGFYW;
  Avatars_Avatars[i].TalkView = VNUROGFYT;
  Avatars_Avatars[i].IsMale = false;
  Avatars_Avatars[i].Group = "ags";
  Avatars_Avatars[i].ScalingFactor = 110;
  i++;

  Avatars_Avatars[i].Name = "Roger Femme Brown";
  Avatars_Avatars[i].Source = "(by ProgZmax and Hobo)";          // Y - by ProgZmax and Hobo - (CC BY 4.0)
  Avatars_Avatars[i].WalkView = VNUROGFBW;
  Avatars_Avatars[i].TalkView = VNUROGFBT;
  Avatars_Avatars[i].IsMale = false;
  Avatars_Avatars[i].Group = "ags";
  Avatars_Avatars[i].ScalingFactor = 110;
  i++;

  Avatars_Avatars[i].Name = "Roger Femme Black";
  Avatars_Avatars[i].Source = "(by ProgZmax and Hobo)";          // Y - by ProgZmax and Hobo - (CC BY 4.0)
  Avatars_Avatars[i].WalkView = VNUROGFKW;
  Avatars_Avatars[i].TalkView = VNUROGFKT;
  Avatars_Avatars[i].IsMale = false;
  Avatars_Avatars[i].Group = "ags";
  Avatars_Avatars[i].ScalingFactor = 110;
  i++;


  // RON
  Avatars_Avatars[i].Name = "Davy Jones";
  Avatars_Avatars[i].Source = "Reality on the Norm";          // Y - sprites by Krysis - (AGS Open Source)
  Avatars_Avatars[i].WalkView = VDAVYJONESW;
  Avatars_Avatars[i].TalkView = VDAVYJONESW;
  Avatars_Avatars[i].IsMale = true;
  Avatars_Avatars[i].Group = "ags";
  Avatars_Avatars[i].ScalingFactor = 60;
  i++;

  Avatars_Avatars[i].Name = "Mika Huy";
  Avatars_Avatars[i].Source = "Reality on the Norm";          // Y - sprites by Krysis - (AGS Open Source)
  Avatars_Avatars[i].WalkView = VMIKAW;
  Avatars_Avatars[i].TalkView = VMIKAT;
  Avatars_Avatars[i].IsMale = false;
  Avatars_Avatars[i].Group = "ags";
  Avatars_Avatars[i].ScalingFactor = 60;
  i++;

  Avatars_Avatars[i].Name = "Josh Beachcomber";
  Avatars_Avatars[i].Source = "Reality on the Norm";          // Y - sprites by Krysis - (AGS Open Source)
  Avatars_Avatars[i].WalkView = VJBEACHW;
  Avatars_Avatars[i].TalkView = VJBEACHT;
  Avatars_Avatars[i].IsMale = true;
  Avatars_Avatars[i].Group = "ags";
  Avatars_Avatars[i].ScalingFactor = 60;
  i++;

  Avatars_Avatars[i].Name = "Bum";
  Avatars_Avatars[i].Source = "Reality on the Norm";          // Y - sprites by Krysis - (AGS Open Source)
  Avatars_Avatars[i].WalkView = VRONBUMW;
  Avatars_Avatars[i].TalkView = VRONBUMT;
  Avatars_Avatars[i].IsMale = true;
  Avatars_Avatars[i].Group = "ags";
  Avatars_Avatars[i].ScalingFactor = 60;
  i++;

  Avatars_Avatars[i].Name = "Dr. Dee Vee Ess";
  Avatars_Avatars[i].Source = "Reality on the Norm";          // Y - sprites by Krysis - (AGS Open Source)
  Avatars_Avatars[i].WalkView = VDEEVEEESSW;
  Avatars_Avatars[i].TalkView = VDEEVEEESST;
  Avatars_Avatars[i].IsMale = true;
  Avatars_Avatars[i].Group = "ags";
  Avatars_Avatars[i].ScalingFactor = 60;
  i++;

  Avatars_Avatars[i].Name = "Mr. Makkara";
  Avatars_Avatars[i].Source = "Reality on the Norm";          // Y - sprites by Krysis - (AGS Open Source)
  Avatars_Avatars[i].WalkView = VMAKKARAW;
  Avatars_Avatars[i].TalkView = VMAKKARAT;
  Avatars_Avatars[i].IsMale = true;
  Avatars_Avatars[i].Group = "ags";
  Avatars_Avatars[i].ScalingFactor = 60;
  i++;

  Avatars_Avatars[i].Name = "Joyce Thomkin";
  Avatars_Avatars[i].Source = "Reality on the Norm";          // Y - sprites by Krysis - (AGS Open Source)
  Avatars_Avatars[i].WalkView = VJOYCEW;
  Avatars_Avatars[i].TalkView = VJOYCET;
  Avatars_Avatars[i].IsMale = false;
  Avatars_Avatars[i].Group = "ags";
  Avatars_Avatars[i].ScalingFactor = 60;
  i++;

  Avatars_Avatars[i].Name = "Elandra Desmond";
  Avatars_Avatars[i].Source = "Reality on the Norm";          // Y - sprites by Krysis - (AGS Open Source)
  Avatars_Avatars[i].WalkView = VELANDRAW;
  Avatars_Avatars[i].TalkView = VELANDRAT;
  Avatars_Avatars[i].IsMale = false;
  Avatars_Avatars[i].Group = "ags";
  Avatars_Avatars[i].ScalingFactor = 60;
  i++;

  Avatars_Avatars[i].Name = "Sam Salmon";
  Avatars_Avatars[i].Source = "Reality on the Norm";          // Y - sprites by Krysis - (AGS Open Source)
  Avatars_Avatars[i].WalkView = VSAMSALMONW;
  Avatars_Avatars[i].TalkView = VSAMSALMONT;
  Avatars_Avatars[i].IsMale = true;
  Avatars_Avatars[i].Group = "ags";
  Avatars_Avatars[i].ScalingFactor = 60;
  i++;

  Avatars_Avatars[i].Name = "Claudius Magnett";
  Avatars_Avatars[i].Source = "Reality on the Norm";          // Y - sprites by Krysis - (AGS Open Source)
  Avatars_Avatars[i].WalkView = VCLAUDIUSW;
  Avatars_Avatars[i].TalkView = VCLAUDIUST;
  Avatars_Avatars[i].IsMale = true;
  Avatars_Avatars[i].Group = "ags";
  Avatars_Avatars[i].ScalingFactor = 60;
  i++;

  Avatars_Avatars[i].Name = "Man in Cow Suit";
  Avatars_Avatars[i].Source = "Reality on the Norm";          // Y - sprites by Krysis - (AGS Open Source)
  Avatars_Avatars[i].WalkView = VMANCOWSUITW;
  Avatars_Avatars[i].TalkView = VMANCOWSUITT;
  Avatars_Avatars[i].IsMale = true;
  Avatars_Avatars[i].Group = "ags";
  Avatars_Avatars[i].ScalingFactor = 60;
  i++;

  Avatars_Avatars[i].Name = "Mac";
  Avatars_Avatars[i].Source = "Alles Euro";                   // Y - by abstauber - (CC0 1.0 public domain)
  Avatars_Avatars[i].WalkView = VMACW;
  Avatars_Avatars[i].TalkView = VMACW;
  Avatars_Avatars[i].IsMale = true;
  Avatars_Avatars[i].Group = "ags";
  Avatars_Avatars[i].ScalingFactor = 75;
  i++;

  Avatars_Avatars[i].Name = "Jack";
  Avatars_Avatars[i].Source = "Out of Gas";                   // Y - by Cassiebsg - (CC0 1.0 public domain)
  Avatars_Avatars[i].WalkView = VJACKW;
  Avatars_Avatars[i].TalkView = VJACKW;
  Avatars_Avatars[i].SpecialView = VJACKX;
  Avatars_Avatars[i].IsMale = true;
  Avatars_Avatars[i].Group = "ags";
  Avatars_Avatars[i].ScalingFactor = 75;
  i++;

  Avatars_Avatars[i].Name = "Old Lady";
  Avatars_Avatars[i].Source = "Out of Gas";                   // Y - by Cassiebsg - (CC0 1.0 public domain)
  Avatars_Avatars[i].WalkView = VOLDLADYW;
  Avatars_Avatars[i].TalkView = VOLDLADYW;
  Avatars_Avatars[i].IsMale = false;
  Avatars_Avatars[i].Group = "ags";
  Avatars_Avatars[i].ScalingFactor = 75;
  i++;

  Avatars_Avatars[i].Name = "Guy";
  Avatars_Avatars[i].Source = "Smooth Hide";                   // Y - by Cassiebsg - (CC0 1.0 public domain)
  Avatars_Avatars[i].WalkView = VGUYW;
  Avatars_Avatars[i].TalkView = VGUYT;
  Avatars_Avatars[i].IsMale = true;
  Avatars_Avatars[i].Group = "ags";
  Avatars_Avatars[i].ScalingFactor = 100;
  i++;


  /////////////////////////////////////////////////////////////////////////////////////////
  // Populate Reserved Avatars
  /////////////////////////////////////////////////////////////////////////////////////////
  // NSFW
  Avatars_Avatars[i].Name = "Nikee";
  Avatars_Avatars[i].Source = "Ponderabilia";                    // Y - by moloko - (all rights reserved)
  Avatars_Avatars[i].WalkView = VNIKEENW;
  Avatars_Avatars[i].TalkView = VNIKEENW;
  Avatars_Avatars[i].IsMale = false;
  Avatars_Avatars[i].Group = "ohmy";
  Avatars_Avatars[i].ScalingFactor = 120;
  i++;

  Avatars_Avatars[i].Name = "Guido";
  Avatars_Avatars[i].Source = "Reality on the Norm";             // Y - sprites by Krysis - (AGS Open Source)
  Avatars_Avatars[i].WalkView = VGUIDOW;
  Avatars_Avatars[i].TalkView = VGUIDOT;
  Avatars_Avatars[i].IsMale = true;
  Avatars_Avatars[i].Group = "ohmy";
  Avatars_Avatars[i].ScalingFactor = 60;
  i++;

  Avatars_Avatars[i].Name = "Biker Paige";
  Avatars_Avatars[i].Source = "2034 A.C. (After Canada)";        // Y - Ponch - (all rights reserved)
  Avatars_Avatars[i].WalkView = VBIKERW;
  Avatars_Avatars[i].TalkView = VBIKERW;
  Avatars_Avatars[i].IsMale = false;
  Avatars_Avatars[i].Group = "ohmy";
  Avatars_Avatars[i].ScalingFactor = 120;
  i++;

  // Exclusive
  Avatars_Avatars[i].Name = "Alan v.Drake";
  Avatars_Avatars[i].Source = "(by Alan v.Drake)";               // X - by Alan v.Drake - (all rights reserved)
  Avatars_Avatars[i].WalkView = VALANDRAKEW;
  Avatars_Avatars[i].TalkView = VALANDRAKEW;
  Avatars_Avatars[i].IsMale = true;
  Avatars_Avatars[i].Group = "drakesprogress";
  Avatars_Avatars[i].ScalingFactor = 90;
  i++;

  // Nominees 2016
  Avatars_Avatars[i].Name = "Alfred Walsh";
  Avatars_Avatars[i].Source = "Tales";                           // Y - by AprilSkies - (CC BY-NC-SA 4.0)
  Avatars_Avatars[i].WalkView = VALFREDWALSHW;
  Avatars_Avatars[i].TalkView = VALFREDWALSHW;
  Avatars_Avatars[i].IsMale = true;
  Avatars_Avatars[i].Group = "ags";
  Avatars_Avatars[i].ScalingFactor = 120;
  i++;

  Avatars_Avatars[i].Name = "The Stranger";
  Avatars_Avatars[i].Source = "The Man from Fugue State";        // Y - by Haggis - (CC BY-NC-SA 4.0)
  Avatars_Avatars[i].WalkView = VFUGUEW;
  Avatars_Avatars[i].TalkView = VFUGUET;
  Avatars_Avatars[i].IsMale = true;
  Avatars_Avatars[i].Group = "ags";
  Avatars_Avatars[i].ScalingFactor = 45;
  i++;

  Avatars_Avatars[i].Name = "Mind Maggot";
  Avatars_Avatars[i].Source = "GNRBLEX";                         // Y - by WHAM - (all rights reserved)
  Avatars_Avatars[i].WalkView = VGNRBLEXW;
  Avatars_Avatars[i].TalkView = VGNRBLEXW;
  Avatars_Avatars[i].IsMale = true;
  Avatars_Avatars[i].Group = "ags";
  Avatars_Avatars[i].ScalingFactor = 65;
  i++;

  Avatars_Avatars[i].Name = "Phil";
  Avatars_Avatars[i].Source = "Graveyard";                       // Y - by CaesarCub - (CC BY-NC-SA 4.0)
  Avatars_Avatars[i].WalkView = VGRAVEYARDPHILW;
  Avatars_Avatars[i].TalkView = VGRAVEYARDPHILW;
  Avatars_Avatars[i].IsMale = true;
  Avatars_Avatars[i].Group = "ags";
  Avatars_Avatars[i].ScalingFactor = 100;
  i++;

  Avatars_Avatars[i].Name = "Kathy Rain";
  Avatars_Avatars[i].Source = "Kathy Rain";                      // Y - by Clifftop Games (JSH), sprites by ProgZMax - (all rights reserved)
  Avatars_Avatars[i].WalkView = VKATHYW;
  Avatars_Avatars[i].TalkView = VKATHYW;
  Avatars_Avatars[i].IsMale = false;
  Avatars_Avatars[i].Group = "ags";
  Avatars_Avatars[i].ScalingFactor = 75;
  i++;

  Avatars_Avatars[i].Name = "Maestro Monkey";
  Avatars_Avatars[i].Source = "Monkeys to the Moon!";            // Y - by Crystal Shard (Radiant) - (all rights reserved)
  Avatars_Avatars[i].WalkView = VMAESTROMONKEYW;
  Avatars_Avatars[i].TalkView = VMAESTROMONKEYW;
  Avatars_Avatars[i].IsMale = true;
  Avatars_Avatars[i].Group = "ags";
  Avatars_Avatars[i].ScalingFactor = 100;
  i++;

  Avatars_Avatars[i].Name = "Amy Wellard";
  Avatars_Avatars[i].Source = "Shardlight";                      // Y - by Wadjet Eye Games (Dave Gilbert), sprites by Ben304 - (all rights reserved)
  Avatars_Avatars[i].WalkView = VAMYW;
  Avatars_Avatars[i].TalkView = VAMYW;
  Avatars_Avatars[i].IsMale = false;
  Avatars_Avatars[i].Group = "ags";
  Avatars_Avatars[i].ScalingFactor = 70;
  i++;

  Avatars_Avatars[i].Name = "Tiberius";
  Avatars_Avatars[i].Source = "Shardlight";                      // Y - by Wadjet Eye Games (Dave Gilbert), sprites by Ben304 - (all rights reserved)
  Avatars_Avatars[i].WalkView = VTIBERIUSW;
  Avatars_Avatars[i].TalkView = VTIBERIUSW;
  Avatars_Avatars[i].IsMale = true;
  Avatars_Avatars[i].Group = "ags";
  Avatars_Avatars[i].ScalingFactor = 70;
  i++;

  Avatars_Avatars[i].Name = "Yeti";
  Avatars_Avatars[i].Source = "Stair Quest";                    //  Y - by No More for Today Production (Decaffeinated Jedi), sprites by Chris Ushko/Kevin Wallace - (all rights reserved)
  Avatars_Avatars[i].WalkView = VYETIW;
  Avatars_Avatars[i].TalkView = VYETIW;
  Avatars_Avatars[i].IsMale = true;
  Avatars_Avatars[i].Group = "ags";
  Avatars_Avatars[i].ScalingFactor = 125;
  i++;

  Avatars_Avatars[i].Name = "Mikael";
  Avatars_Avatars[i].Source = "The Journey of Iesir";           // Y - by Dream Cauldron, sprites by Daniel Thomas - (all rights reserved)
  Avatars_Avatars[i].WalkView = VMIKAELW;
  Avatars_Avatars[i].TalkView = VMIKAELW;
  Avatars_Avatars[i].IsMale = true;
  Avatars_Avatars[i].Group = "ags";
  Avatars_Avatars[i].ScalingFactor = 28;
  i++;

  Avatars_Avatars[i].Name = "Toffee";
  Avatars_Avatars[i].Source = "Toffee Trouble in Creamville";   // Y - by cat, sprites by Miez - (all rights reserved)
  Avatars_Avatars[i].WalkView = VTOFFEEW;
  Avatars_Avatars[i].TalkView = VTOFFEET;
  Avatars_Avatars[i].IsMale = false;
  Avatars_Avatars[i].Group = "ags";
  Avatars_Avatars[i].ScalingFactor = 75;
  i++;

  /*
  Avatars_Avatars[i].Name = "The Artist";                       // NOT FOR RELEASE?
  Avatars_Avatars[i].Source = "Until I Have You";               // ? - by Wormwood Studios (Dualnames), sprites by ? - ?
  Avatars_Avatars[i].WalkView = VARTISTW;
  Avatars_Avatars[i].TalkView = VARTISTW;
  Avatars_Avatars[i].IsMale = true;
  Avatars_Avatars[i].Group = "ags";
  Avatars_Avatars[i].ScalingFactor = 50;
  i++;
  */

  Avatars_Avatars[i].Name = "Ivan";
  Avatars_Avatars[i].Source = "Sniper and Spotter Being Patriotic"; // Y - by Blondbraid - (all rights reserved)
  Avatars_Avatars[i].WalkView = VIVANW;
  Avatars_Avatars[i].TalkView = VIVANW;
  Avatars_Avatars[i].IsMale = true;
  Avatars_Avatars[i].Group = "ags";
  Avatars_Avatars[i].ScalingFactor = 35;
  i++;

  /*
  Avatars_Avatars[i].Name = "Quidet";                          // NOT FOR RELEASE
  Avatars_Avatars[i].Source = "This City at Night";            // Y - by paolo, sprites by Ben304 - (all rights reserved)
  Avatars_Avatars[i].WalkView = VQUIDETW;
  Avatars_Avatars[i].TalkView = VQUIDETW;
  Avatars_Avatars[i].IsMale = true;
  Avatars_Avatars[i].Group = "ags";
  Avatars_Avatars[i].ScalingFactor = 50;
  i++;
  */
  
  
  // Nominees 2017
  /*
  Avatars_Avatars[i].Name = "Maeldun";                        // NOT FOR RELEASE
  Avatars_Avatars[i].Source = "A Tale of Two Kingdoms";       // Y - by Crystal Shard (Radiant) - (all rights reserved)
  Avatars_Avatars[i].WalkView = VMAELDUNW;
  Avatars_Avatars[i].TalkView = VMAELDUNW;
  Avatars_Avatars[i].IsMale = true;
  Avatars_Avatars[i].Group = "maeldone";
  Avatars_Avatars[i].ScalingFactor = 100;
  i++;

  Avatars_Avatars[i].Name = "The Pooka";                      // NOT FOR RELEASE
  Avatars_Avatars[i].Source = "A Tale of Two Kingdoms";       // Y - by Crystal Shard (Radiant) - (all rights reserved)
  Avatars_Avatars[i].WalkView = VPOOKAW;
  Avatars_Avatars[i].TalkView = VPOOKAW;
  Avatars_Avatars[i].IsMale = false;
  Avatars_Avatars[i].Group = "maeldone";
  Avatars_Avatars[i].ScalingFactor = 100;
  i++;
  */

  Avatars_Avatars[i].Name = "Dr. Ego Goodmind";
  Avatars_Avatars[i].Source = "Terror of the Vampire!";       // Y - Scavenger - (all rights reserved)
  Avatars_Avatars[i].WalkView = VDREGOW;
  Avatars_Avatars[i].TalkView = VDREGOW;
  Avatars_Avatars[i].SpecialView = VDREGOX;
  Avatars_Avatars[i].IsMale = true;
  Avatars_Avatars[i].Group = "fangfear";
  Avatars_Avatars[i].ScalingFactor = 95;
  i++;
  
  /*
  Avatars_Avatars[i].Name = "The Black Morph";                // NOT FOR RELEASE
  Avatars_Avatars[i].Source = "Black Morph";                  // Y - selmiak - (all rights reserved)
  Avatars_Avatars[i].WalkView = VBLACKMORPHW;
  Avatars_Avatars[i].IsMale = true;
  Avatars_Avatars[i].Group = "morpheus";
  Avatars_Avatars[i].ScalingFactor = 120;
  i++;
  
  Avatars_Avatars[i].Name = "Captain Disaster";                         // NOT FOR RELEASE
  Avatars_Avatars[i].Source = "Death Has a Million Stomping Boots";     // Y - CaptainD - (all rights reserved)
  Avatars_Avatars[i].WalkView = VCPTDISASTERW;
  Avatars_Avatars[i].TalkView = VCPTDISASTERT;
  Avatars_Avatars[i].IsMale = true;
  Avatars_Avatars[i].Group = "stomp stomp";
  Avatars_Avatars[i].ScalingFactor = 65;
  i++;
  */

  Avatars_Avatars[i].Name = "Hero";
  Avatars_Avatars[i].Source = "Legend of Hand";               // Y - by shaun9991 - (CC BY 4.0)
  Avatars_Avatars[i].WalkView = VHANDHEROW;
  Avatars_Avatars[i].IsMale = true;
  Avatars_Avatars[i].Group = "protagonist";
  Avatars_Avatars[i].ScalingFactor = 75;
  i++;
  
  Avatars_Avatars[i].Name = "Karl Carbon";
  Avatars_Avatars[i].Source = "Neofeud";                      // Y - by SilverSpook - (CC BY 4.0)
  Avatars_Avatars[i].WalkView = VKARLCARBONW;
  Avatars_Avatars[i].IsMale = true;
  Avatars_Avatars[i].Group = "future shock";
  Avatars_Avatars[i].ScalingFactor = 28;
  i++;

  Avatars_Avatars[i].Name = "Luke";
  Avatars_Avatars[i].Source = "I Want Out!";                  // Y - by NicolasG, sprites by Matthieu Fouache - (CC BY-NC-SA 4.0)
  Avatars_Avatars[i].WalkView = VLUKEW;
  Avatars_Avatars[i].TalkView = VLUKET;
  Avatars_Avatars[i].IsMale = true;
  Avatars_Avatars[i].Group = "i got out";
  Avatars_Avatars[i].ScalingFactor = 70;
  i++;
  
  /*
  Avatars_Avatars[i].Name = "Claire";                         // NOT FOR RELEASE?
  Avatars_Avatars[i].Source = "Jorry";                        // ? - by jyanncorp - (all rights reserved)
  Avatars_Avatars[i].WalkView = VCLAIREW;
  Avatars_Avatars[i].SpecialView = VCLAIREX;
  Avatars_Avatars[i].IsMale = false;
  Avatars_Avatars[i].Group = "survivor";
  Avatars_Avatars[i].ScalingFactor = 84;
  i++;
  */

  Avatars_Avatars[i].Name = "Professor";
  Avatars_Avatars[i].Source = "Archeos";                      // Y - by Ibispi, sprites by @UnFantomeBleu - (CC BY-NC-SA 4.0)
  Avatars_Avatars[i].WalkView = VPROFESSORW;
  Avatars_Avatars[i].IsMale = true;
  Avatars_Avatars[i].Group = "archie";
  Avatars_Avatars[i].ScalingFactor = 80;
  i++;
  
  Avatars_Avatars[i].Name = "Seamus";
  Avatars_Avatars[i].Source = "Archeos";                      // Y - by Ibispi, sprites by @UnFantomeBleu - (CC BY-NC-SA 4.0)
  Avatars_Avatars[i].WalkView = VSEAMUSW;
  Avatars_Avatars[i].IsMale = true;
  Avatars_Avatars[i].Group = "archie";
  Avatars_Avatars[i].ScalingFactor = 80;
  i++;
  
  Avatars_Avatars[i].Name = "Gakusei Girl";
  Avatars_Avatars[i].Source = "Kanji Gakusei";                // Y - by cat - (all rights reserved)
  Avatars_Avatars[i].WalkView = VGAKUSEIW;
  Avatars_Avatars[i].TalkView = VGAKUSEIT;
  Avatars_Avatars[i].IsMale = false;
  Avatars_Avatars[i].Group = "konichiwa";
  Avatars_Avatars[i].ScalingFactor = 80;
  i++;
  
  Avatars_Avatars[i].Name = "Debra";
  Avatars_Avatars[i].Source = "10 Ways from Sunday";          // Y - by HanaIndiana - (CC0 1.0 public domain)
  Avatars_Avatars[i].WalkView = VDEBRAW;
  Avatars_Avatars[i].IsMale = false;
  Avatars_Avatars[i].Group = "hallelujah";
  Avatars_Avatars[i].ScalingFactor = 90;
  i++;
  
  Avatars_Avatars[i].Name = "Cass";
  Avatars_Avatars[i].Source = "Unexpected at the Rising Star";  // Y - by CassieBsg - (CC0 1.0 public domain)
  Avatars_Avatars[i].WalkView = VCASSW;
  Avatars_Avatars[i].IsMale = false;
  Avatars_Avatars[i].Group = "cylonious";
  Avatars_Avatars[i].ScalingFactor = 28;
  i++;
  
  Avatars_Avatars[i].Name = "Starbuck";
  Avatars_Avatars[i].Source = "Unexpected at the Rising Star";  // Y - by CassieBsg - (CC0 1.0 public domain)
  Avatars_Avatars[i].WalkView = VSTARBUCKW;
  Avatars_Avatars[i].IsMale = true;
  Avatars_Avatars[i].Group = "cylonious";
  Avatars_Avatars[i].ScalingFactor = 28;
  i++;
  
  Avatars_Avatars[i].Name = "Pete";
  Avatars_Avatars[i].Source = "Stable Pete and the Joust";      // Y - by CassieBsg - (CC0 1.0 public domain)
  Avatars_Avatars[i].WalkView = VPETEW;
  Avatars_Avatars[i].TalkView = VPETET;
  Avatars_Avatars[i].IsMale = true;
  Avatars_Avatars[i].Group = "stable genius";
  Avatars_Avatars[i].ScalingFactor = 40;
  i++;
  
  /////////////////////////////////////////////////////////////////////////////////////////
  // Populate the Miscellaneous Avatars
  /////////////////////////////////////////////////////////////////////////////////////////
  Avatars_Avatars[i].Name = "Laura Bow";
  Avatars_Avatars[i].Source = "The Dagger of Amon Ra";                 // by Sierra, used without permission
  Avatars_Avatars[i].WalkView = VLBLAURAW;
  Avatars_Avatars[i].TalkView = VLBLAURAW;
  Avatars_Avatars[i].IsMale = false;
  Avatars_Avatars[i].ScalingFactor = 116;
  Avatars_Avatars[i].Group = "misc";
  i++;

  Avatars_Avatars[i].Name = "Dr. \"Tut\" Smith";
  Avatars_Avatars[i].Source = "The Dagger of Amon Ra";                 // by Sierra, used without permission
  Avatars_Avatars[i].WalkView = VTUTW;
  Avatars_Avatars[i].TalkView = VTUTW;
  Avatars_Avatars[i].IsMale = true;
  Avatars_Avatars[i].ScalingFactor = 110;
  Avatars_Avatars[i].Group = "misc";
  i++;

  Avatars_Avatars[i].Name = "Roger Wilco";
  Avatars_Avatars[i].Source = "Space Quest IV";                        // by Sierra, used without permission
  Avatars_Avatars[i].WalkView = VSQROGERW;
  Avatars_Avatars[i].TalkView = VSQROGERW;
  Avatars_Avatars[i].IsMale = true;
  Avatars_Avatars[i].ScalingFactor = 110;
  Avatars_Avatars[i].Group = "misc";
  i++;

  Avatars_Avatars[i].Name = "Gabriel Knight";
  Avatars_Avatars[i].Source = "Gabriel Knight: Sins of the Fathers";   // by Sierra, used without permission
  Avatars_Avatars[i].WalkView = VGKGABRIELW;
  Avatars_Avatars[i].TalkView = VGKGABRIELW;
  Avatars_Avatars[i].IsMale = true;
  Avatars_Avatars[i].Group = "misc";
  Avatars_Avatars[i].ScalingFactor = 84;
  i++;

  Avatars_Avatars[i].Name = "Phoenix Wright";
  Avatars_Avatars[i].Source = "Phoenix Wright: Ace Attorney (sprites by Charlesg154)";      // sprites by Charlesg154 - (CC BY)
  Avatars_Avatars[i].WalkView = VPHOENIXW;
  Avatars_Avatars[i].TalkView = VPHOENIXW;
  Avatars_Avatars[i].IsMale = true;
  Avatars_Avatars[i].Group = "misc";
  Avatars_Avatars[i].ScalingFactor = 70;
  i++;

  Avatars_Avatars[i].Name = "Maya Fey";
  Avatars_Avatars[i].Source = "Phoenix Wright: Ace Attorney (sprites by Charlesg154)";      // sprites by Charlesg154 - (CC BY)
  Avatars_Avatars[i].WalkView = VMAYAW;
  Avatars_Avatars[i].TalkView = VMAYAW;
  Avatars_Avatars[i].IsMale = false;
  Avatars_Avatars[i].Group = "misc";
  Avatars_Avatars[i].ScalingFactor = 70;
  i++;

  Avatars_Avatars[i].Name = "Rincewind";
  Avatars_Avatars[i].Source = "Discworld";          // by Teeny Weeny Games, Perfect 10 Productions, Psygnosis, used without permission
  Avatars_Avatars[i].WalkView = VRINCEWINDW;
  Avatars_Avatars[i].TalkView = VRINCEWINDW;
  Avatars_Avatars[i].IsMale = true;
  Avatars_Avatars[i].Group = "misc";
  Avatars_Avatars[i].ScalingFactor = 70;
  i++;

  /////////////////////////////////////////////////////////////////////////////////////////
  // Populate the LucasArts Avatars
  /////////////////////////////////////////////////////////////////////////////////////////
  // - MI
  Avatars_Avatars[i].Name = "Largo LaGrande";
  Avatars_Avatars[i].Source = "Monkey Island 2";                 // by LucasArts, used without permission
  Avatars_Avatars[i].WalkView = VMILARGOW;
  Avatars_Avatars[i].TalkView = VMILARGOW;
  Avatars_Avatars[i].IsMale = true;
  Avatars_Avatars[i].Group = "lucasarts";
  i++;

  Avatars_Avatars[i].Name = "Fester Shinetop";
  Avatars_Avatars[i].Source = "The Secret of Monkey Island";     // by LucasArts, used without permission
  Avatars_Avatars[i].WalkView = VMIFESTERW;
  Avatars_Avatars[i].TalkView = VMIFESTERW;
  Avatars_Avatars[i].IsMale = true;
  Avatars_Avatars[i].Group = "lucasarts";
  i++;

  Avatars_Avatars[i].Name = "Mad Marty";
  Avatars_Avatars[i].Source = "Monkey Island 2";                 // by LucasArts, used without permission
  Avatars_Avatars[i].WalkView = VMIMARTYW;
  Avatars_Avatars[i].TalkView = VMIMARTYW;
  Avatars_Avatars[i].IsMale = true;
  Avatars_Avatars[i].Group = "lucasarts";
  i++;

  Avatars_Avatars[i].Name = "Bob";
  Avatars_Avatars[i].Source = "The Secret of Monkey Island";     // by LucasArts, used without permission
  Avatars_Avatars[i].WalkView = VMIBOBW;
  Avatars_Avatars[i].TalkView = VMIBOBW;
  Avatars_Avatars[i].IsMale = true;
  Avatars_Avatars[i].Group = "lucasarts";
  i++;

  Avatars_Avatars[i].Name = "Stan";
  Avatars_Avatars[i].Source = "The Secret of Monkey Island";     // by LucasArts, used without permission
  Avatars_Avatars[i].WalkView = VMISTANW;
  Avatars_Avatars[i].TalkView = VMISTANW;
  Avatars_Avatars[i].IsMale = true;
  Avatars_Avatars[i].Group = "lucasarts";
  i++;

  Avatars_Avatars[i].Name = "LeChuck";
  Avatars_Avatars[i].Source = "Monkey Island 2";                 // by LucasArts, used without permission
  Avatars_Avatars[i].WalkView = VMILECHUCKW;
  Avatars_Avatars[i].TalkView = VMILECHUCKW;
  Avatars_Avatars[i].IsMale = true;
  Avatars_Avatars[i].Group = "lucasarts";
  i++;

  Avatars_Avatars[i].Name = "Guybrush Threepwood";
  Avatars_Avatars[i].Source = "Monkey Island 2";                 // by LucasArts, used without permission
  Avatars_Avatars[i].WalkView = VMIGUYBRUSHW;
  Avatars_Avatars[i].TalkView = VMIGUYBRUSHW;
  Avatars_Avatars[i].IsMale = true;
  Avatars_Avatars[i].Group = "lucasarts";
  i++;

  Avatars_Avatars[i].Name = "Captain Smirk";
  Avatars_Avatars[i].Source = "The Secret of Monkey Island";     // by LucasArts, used without permission
  Avatars_Avatars[i].WalkView = VMISMIRKW;
  Avatars_Avatars[i].TalkView = VMISMIRKW;
  Avatars_Avatars[i].IsMale = true;
  Avatars_Avatars[i].Group = "lucasarts";
  i++;

  Avatars_Avatars[i].Name = "Herman Toothrot";
  Avatars_Avatars[i].Source = "The Secret of Monkey Island";     // by LucasArts, used without permission
  Avatars_Avatars[i].WalkView = VMIHERMANW;
  Avatars_Avatars[i].TalkView = VMIHERMANW;
  Avatars_Avatars[i].IsMale = true;
  Avatars_Avatars[i].Group = "lucasarts";
  i++;

  Avatars_Avatars[i].Name = "Captain Kate Capsize";
  Avatars_Avatars[i].Source = "Monkey Island 2";                 // by LucasArts, used without permission
  Avatars_Avatars[i].WalkView = VMIKATEW;
  Avatars_Avatars[i].TalkView = VMIKATEW;
  Avatars_Avatars[i].IsMale = false;
  Avatars_Avatars[i].Group = "lucasarts";
  i++;

  Avatars_Avatars[i].Name = "Carla the Swordmaster";
  Avatars_Avatars[i].Source = "The Secret of Monkey Island";     // by LucasArts, used without permission
  Avatars_Avatars[i].WalkView = VMICARLAW;
  Avatars_Avatars[i].TalkView = VMICARLAW;
  Avatars_Avatars[i].IsMale = false;
  Avatars_Avatars[i].Group = "lucasarts";
  i++;

  Avatars_Avatars[i].Name = "Meathook";
  Avatars_Avatars[i].Source = "The Secret of Monkey Island";     // by LucasArts, used without permission
  Avatars_Avatars[i].WalkView = VMIMEATHOOKW;
  Avatars_Avatars[i].TalkView = VMIMEATHOOKW;
  Avatars_Avatars[i].IsMale = true;
  Avatars_Avatars[i].Group = "lucasarts";
  i++;

  Avatars_Avatars[i].Name = "Elaine Marley";
  Avatars_Avatars[i].Source = "The Secret of Monkey Island";     // by LucasArts, used without permission
  Avatars_Avatars[i].WalkView = VMIELAINEW;
  Avatars_Avatars[i].TalkView = VMIELAINEW;
  Avatars_Avatars[i].IsMale = false;
  Avatars_Avatars[i].Group = "lucasarts";
  i++;

  Avatars_Avatars[i].Name = "Otis";
  Avatars_Avatars[i].Source = "The Secret of Monkey Island";     // by LucasArts, used without permission
  Avatars_Avatars[i].WalkView = VMIOTISW;
  Avatars_Avatars[i].TalkView = VMIOTISW;
  Avatars_Avatars[i].IsMale = true;
  Avatars_Avatars[i].Group = "lucasarts";
  i++;

  // - Indy
  Avatars_Avatars[i].Name = "Indiana Jones";
  Avatars_Avatars[i].Source = "Indiana Jones and the Fate of Atlantis";   // by LucasArts, used without permission
  Avatars_Avatars[i].WalkView = VFOAINDYW;
  Avatars_Avatars[i].TalkView = VFOAINDYW;
  Avatars_Avatars[i].IsMale = true;
  Avatars_Avatars[i].Group = "lucasarts";
  i++;

  Avatars_Avatars[i].Name = "Sophia Hapgood";
  Avatars_Avatars[i].Source = "Indiana Jones and the Fate of Atlantis";   // by LucasArts, used without permission
  Avatars_Avatars[i].WalkView = VFOASOPHIAW;
  Avatars_Avatars[i].TalkView = VFOASOPHIAW;
  Avatars_Avatars[i].IsMale = false;
  Avatars_Avatars[i].Group = "lucasarts";
  i++;

  Avatars_Avatars[i].Name = "Dr. Henry Jones";
  Avatars_Avatars[i].Source = "Indiana Jones and the Fate of Atlantis";   // by LucasArts, used without permission
  Avatars_Avatars[i].WalkView = VFOAJONESW;
  Avatars_Avatars[i].TalkView = VFOAJONESW;
  Avatars_Avatars[i].IsMale = true;
  Avatars_Avatars[i].Group = "lucasarts";
  i++;

  Avatars_Avatars[i].Name = "Miss Hapgood";
  Avatars_Avatars[i].Source = "Indiana Jones and the Fate of Atlantis";   // by LucasArts, used without permission
  Avatars_Avatars[i].WalkView = VFOAHAPGOODW;
  Avatars_Avatars[i].TalkView = VFOAHAPGOODW;
  Avatars_Avatars[i].IsMale = false;
  Avatars_Avatars[i].Group = "lucasarts";
  i++;

  // - DOTT, S&M
  Avatars_Avatars[i].Name = "Bernard";
  Avatars_Avatars[i].Source = "Day of the Tentacle";                // by LucasArts, used without permission
  Avatars_Avatars[i].WalkView = VDOTTBERNARDW;
  Avatars_Avatars[i].TalkView = VDOTTBERNARDW;
  Avatars_Avatars[i].IsMale = true;
  Avatars_Avatars[i].Group = "lucasarts";
  Avatars_Avatars[i].ScalingFactor = 70;
  i++;

  Avatars_Avatars[i].Name = "Sam";
  Avatars_Avatars[i].Source = "Sam & Max Hit the Road";             // by LucasArts, used without permission
  Avatars_Avatars[i].WalkView = VSMSAMW;
  Avatars_Avatars[i].TalkView = VSMSAMW;
  Avatars_Avatars[i].IsMale = true;
  Avatars_Avatars[i].Group = "lucasarts";
  Avatars_Avatars[i].ScalingFactor = 70;
  i++;

  Avatars_Avatars[i].Name = "Max";
  Avatars_Avatars[i].Source = "Sam & Max Hit the Road";             // by LucasArts, used without permission
  Avatars_Avatars[i].WalkView = VSMMAXW;
  Avatars_Avatars[i].TalkView = VSMMAXW;
  Avatars_Avatars[i].IsMale = true;
  Avatars_Avatars[i].Group = "lucasarts";
  Avatars_Avatars[i].ScalingFactor = 70;
  i++;


}

//////////////////////////////////////////////////////////////////////////////////////////////////////////
// Convenience functions
//////////////////////////////////////////////////////////////////////////////////////////////////////////

/// Enables or disables all controls on a GUI
void SetEnabled(this GUI*, bool enabled)
{
  int i=0;
  while(i<this.ControlCount)
  {
    this.Controls[i].Enabled = enabled;
    i++;
  }
}

// Cache these values for the currently displayed avatar group
String avatarGroup;
int avatarGroupSize;
int avatarDisplaySize;
int avatarGuiRows;
int avatarGuiColumns;
int avatarCurrentScreen;
pAvatar avatarGroupIndex[AVATAR_COUNT]; // Lookup table from the displayed avatars to the full avatars list

/// Counts how many avatars there are in a particular group
int getAvatarGroupSize(String group)
{
  int size=0;

  int i=0;
  while(i<AVATAR_COUNT)
  {
    if(group == Avatars_Avatars[i].Group)
      size++;
    i++;
  }
  return size;
}

// Calculates how many columns to use to display our avatars
int calculateColumns(int size)
{
  // One row
  if(size<4)
    return size;
  // Two rows
  if(size<=4)
    return 2;
  if(size<=6)
    return 3;
  // (Two or) Three rows
  if(size<=12)
    return 4;
  if(size<=15)
    return 5;
  if(size<=18)
    return 6;
  // (Three or) Four rows
  if(size<=28)
    return 7;
  if(size<=32)
    return 8;
  return 9;
}

// Calculates an offset to center the last row of avatars
int calculateLastRowOffset()
{
  int lastRowCount = avatarDisplaySize%avatarGuiColumns;
  if(lastRowCount==0)
    lastRowCount=avatarGuiColumns;
  return (avatarGuiColumns-lastRowCount)/2;   // Center the row
}

// Calculates key values for displaying this avatar group, and populates a lookup table
void initAvatarGroup(String group,  int screen)
{
  avatarGroup = group;
  int groupIndex=0;
  int i=0;
  // Find the avatars that belong in this groups
  while(i<AVATAR_COUNT)
  {
    if(group == Avatars_Avatars[i].Group)  // String compare group name
    {
      avatarGroupIndex[groupIndex] = i;
      groupIndex++;
    }
    i++;
  }
  avatarGroupSize = groupIndex; // Count how many we have in group

  // Blank out the rest of the lookup table
  while(groupIndex<AVATAR_COUNT)
  {
    avatarGroupIndex[groupIndex] = -1;
    groupIndex++;
  }

  // Calculate layout values
  avatarCurrentScreen = screen;
  avatarDisplaySize = avatarGroupSize - avatarCurrentScreen*AVATAR_GUI_SLOTS;
  if(avatarDisplaySize > AVATAR_GUI_SLOTS)
    avatarDisplaySize = AVATAR_GUI_SLOTS;
  avatarGuiColumns = calculateColumns(avatarDisplaySize);
  avatarGuiRows = (avatarDisplaySize-1)/avatarGuiColumns + 1;
}

// Figure out which avatar slot is at the coordinates
int getAvatarSlot(int x, int y)
{
  // Above or to the left of the avatars grid: none
  if(x < btnAvatarsGrid.X + AVATARS_GUI_SIDE_BORDER || y < btnAvatarsGrid.Y + AVATARS_GUI_TOP_BORDER)
    return -1;

  // Calculate coordinates relative to top-left corner of the avatars grid
  int xx = x - btnAvatarsGrid.X - AVATARS_GUI_SIDE_BORDER;
  int yy = y - btnAvatarsGrid.Y - AVATARS_GUI_TOP_BORDER;

  // Below or to the right of the avatars grid: none
  if(xx >= btnAvatarsGrid.Width - 2*AVATARS_GUI_SIDE_BORDER || yy >= btnAvatarsGrid.Height - AVATARS_GUI_TOP_BORDER - AVATARS_GUI_BOTTOM_BORDER)
    return -1;

  // Calculate avatar row and column of coordinates
  int row = yy / (AVATAR_GUI_HEIGHT + AVATAR_GUI_VSPACING);
  int col = xx / (AVATAR_GUI_WIDTH + AVATAR_GUI_HSPACING);

  // Correct for last row slot offset
  int slotOffset = 0;
  if(row == avatarGuiRows-1)
  {
    slotOffset = calculateLastRowOffset();   // The row is centered
  }
  // Calculate the slot number
  int slot = row * avatarGuiColumns + (col - slotOffset);

  // Empty slots: none
  if(row == avatarGuiRows-1 && col<slotOffset) // Disable the offset slots
    slot = -1;
  else if(slot >= avatarDisplaySize) // Disable unfilled slots
    slot = -1;

  return slot;
}

//////////////////////////////////////////////////////////////////////////////////////////////////////////
// Avatars API
//////////////////////////////////////////////////////////////////////////////////////////////////////////

DynamicSprite* dsAvatarsGrid;
void drawAvatar(DrawingSurface* surface, int avatarIndex, int scalingFactor, int x,  int y,  bool highlighted, int walkFrame)
{
  if(highlighted)
  {
    surface.DrawingColor = 63488; // Red outline
    surface.DrawRectangle(x, y, x+AVATAR_GUI_WIDTH-1, y+AVATAR_GUI_HEIGHT-1);
    surface.DrawingColor = 18432; // Dark fill
    surface.DrawRectangle(x+1, y+1, x+AVATAR_GUI_WIDTH-2, y+AVATAR_GUI_HEIGHT-2);
  }
  if(avatarIndex != -1)
  {
    ViewFrame* frame = Game.GetViewFrame(Avatars_Avatars[avatarIndex].WalkView, 0, walkFrame);

    // Complications because if the frame is flipped in the loop, we have to do that manually
    int sprite;
    DynamicSprite* flippedSprite = null;
    if(frame.Flipped)
    {
      flippedSprite = DynamicSprite.CreateFromExistingSprite(frame.Graphic, true);
      flippedSprite.Flip(eFlipLeftToRight);
      sprite = flippedSprite.Graphic;
    }
    else
      sprite = frame.Graphic;
    int scale = (Avatars_Avatars[avatarIndex].ScalingFactor*scalingFactor)/100;

    int spriteWidth = (Game.SpriteWidth[sprite]*scale)/100;
    int spriteHeight = (Game.SpriteHeight[sprite]*scale)/100;
    surface.DrawImage(x + (AVATAR_GUI_WIDTH-spriteWidth)/2, y + (AVATAR_GUI_HEIGHT-spriteHeight) + (AVATAR_GUI_SPRITE_OFFSET), sprite, 0, spriteWidth, spriteHeight);
    if(flippedSprite != null)
    {
      flippedSprite.Delete();
    }
  }
}

void drawAvatars(int highlightedSlot, int walkFrame)
{
  int avatarsWidth = avatarGuiColumns*AVATAR_GUI_WIDTH + (avatarGuiColumns-1)*AVATAR_GUI_HSPACING + 2*AVATARS_GUI_SIDE_BORDER;
  int avatarsHeight = avatarGuiRows*AVATAR_GUI_HEIGHT + (avatarGuiRows-1)*AVATAR_GUI_VSPACING + AVATARS_GUI_TOP_BORDER + AVATARS_GUI_BOTTOM_BORDER;

  btnAvatarsGrid.X = (System.ViewportWidth - avatarsWidth)/2;
  btnAvatarsGrid.Y = (System.ViewportHeight - avatarsHeight)/2 + (AVATARS_GUI_Y_OFFSET);
  btnAvatarsGrid.Width = avatarsWidth;
  btnAvatarsGrid.Height = avatarsHeight;

  if(dsAvatarsGrid != null)
  {
    dsAvatarsGrid.Delete();
  }
  dsAvatarsGrid = DynamicSprite.Create(avatarsWidth,  avatarsHeight, true);
  DrawingSurface* sfAvatarsGrid = dsAvatarsGrid.GetDrawingSurface();

  int slotOffset = calculateLastRowOffset();
  int i=0;
  while(i < AVATAR_GUI_SLOTS)
  {
    int avatarIndex = avatarGroupIndex[i + avatarCurrentScreen*AVATAR_GUI_SLOTS]; // Which avatar to display
    if(avatarIndex != -1)
    {
      int row = i/avatarGuiColumns;
      int column = i % avatarGuiColumns;
      if(row == avatarGuiRows - 1)
      {
        column = column + slotOffset;
      }

      int frame=0;
      if(i == highlightedSlot)
        frame = walkFrame;
      drawAvatar(sfAvatarsGrid,
                 avatarIndex,
                 AVATAR_GUI_SCALE,
                 AVATARS_GUI_SIDE_BORDER + column * (AVATAR_GUI_WIDTH + AVATAR_GUI_HSPACING),
                 AVATARS_GUI_TOP_BORDER + row * (AVATAR_GUI_HEIGHT + AVATAR_GUI_VSPACING),
                 i == highlightedSlot,
                 frame);
    }
    i++;
  }
  sfAvatarsGrid.Release();
  btnAvatarsGrid.NormalGraphic = dsAvatarsGrid.Graphic;
}

static void Avatars::SetupAvatarsDisplay(String group,  int screen)
{
  // Set the select avatar group button state
  initAvatarGroup(group, screen);
  int disableGrayColor = 21130;
  if(group == "ags")
  {
    btnAgsAvatars.NormalGraphic = AVATARS_BUTTON_DISABLED_SPRITE;
    btnAgsAvatars.TextColor = disableGrayColor;
    btnAgsAvatars.Clickable = false;
  }
  else
  {
    btnAgsAvatars.NormalGraphic = AVATARS_BUTTON_SPRITE;
    btnAgsAvatars.TextColor = 0;
    btnAgsAvatars.Clickable = true;
  }
  if(group == "lucasarts")
  {
    btnLucasAvatars.NormalGraphic = AVATARS_BUTTON_DISABLED_SPRITE;
    btnLucasAvatars.TextColor = disableGrayColor;
    btnLucasAvatars.Clickable = false;
  }
  else
  {
    btnLucasAvatars.NormalGraphic = AVATARS_BUTTON_SPRITE;
    btnLucasAvatars.TextColor = 0;
    btnLucasAvatars.Clickable = true;
  }
  if(group == "misc")
  {
    btnSierraAvatars.NormalGraphic = AVATARS_BUTTON_DISABLED_SPRITE;
    btnSierraAvatars.TextColor = disableGrayColor;
    btnSierraAvatars.Clickable = false;
  }
  else
  {
    btnSierraAvatars.NormalGraphic = AVATARS_BUTTON_SPRITE;
    btnSierraAvatars.TextColor = 0;
    btnSierraAvatars.Clickable = true;
  }

  // Make the previous/next buttons visible if needed
  btnAvatarsPrev.Visible = (avatarDisplaySize != avatarGroupSize && screen > 0);
  btnAvatarsNext.Visible = (avatarDisplaySize != avatarGroupSize && screen < (avatarGroupSize-1)/AVATAR_GUI_SLOTS);


  // Display the group name
  lblAvatarsGroup.Text = group.UpperCase();

  drawAvatars(-1, 0);
  btnAvatarsGrid.Visible = true;
}

static void Avatars::ShowGui(String startGroup, bool showOk)
{
//  gLabelOverlay.Visible = false;  // If we don't do this, whatever we type into the password field also gets sent as a chat message :p
  gChatLogText.Visible = false;
  gAvatarsFrame.Visible = true;
  btnAvatarsOk.Visible = showOk;
  Avatars.SetupAvatarsDisplay(startGroup);
}

static void Avatars::HideGui()
{
  gAvatarsPopup.Visible = false;
  gAvatarsFrame.Visible = false;
  gAvatarsSelect.Visible = false;
  if(!yet_to_connect)
  {
    gLabelOverlay.Visible = true;
    gChatLogText.Visible = true;
  }
  dsAvatarsGrid.Delete();
}

static pAvatar Avatars::GetPlayerAvatar()
{
  return playerAvatar;
}

void SetAvatar(this Character*, pAvatar avatar)
{
  logger.LogDebug(String.Format("%s Avatars Character::SetAvatar: Character %d (%s) set avatar %d",player.Name, this.ID, this.Name, avatar));
  int vWalk = Avatars_Avatars[avatar].WalkView;
  this.ChangeView(vWalk);
  int vTalk = Avatars_Avatars[avatar].TalkView;
  if(vTalk == -1)
    vTalk = vWalk;
  this.SpeechView = vTalk;

  // This is meant to make all characters move at relatively similar speeds (regardless of scale, which is now irrelevant),
  // and ensure that one walkcycle takes equal time regardless of frame count (deliberately not accounting for standing frame)
  this.StopMoving();
  int downLoopLength = Game.GetFrameCountForLoop(vWalk, 0);
  int sideLoopLength = Game.GetFrameCountForLoop(vWalk, 1);
  if(sideLoopLength <= 2 && downLoopLength <= 2)
  {
    this.SetWalkSpeed(6, 4);
    this.AnimationSpeed = 2;
  }
  else
  {
    if(sideLoopLength < 5)
      sideLoopLength = 5;
    if(downLoopLength < 5)
      downLoopLength = 5;
    int animationDelay = 30 / sideLoopLength;
    int walkSpeedV = 40 / downLoopLength;
    int walkSpeedH = 60 / sideLoopLength;
    this.SetWalkSpeed(walkSpeedH, walkSpeedV);
    this.AnimationSpeed = animationDelay;
  }
  this.ScaleMoveSpeed = false;
}

static void Avatars::SetPlayerAvatar(pAvatar avatar)
{
  playerAvatar = avatar;
  player.SetAvatar(avatar);
  Profile.SetProperty(PROP_AVATAR,String.Format("%d",avatar));
  Profile.SetProperty(PROP_AVATAR_PW,Avatars_Avatars[avatar].Group);
}

static pAvatar Avatars::OnButtonClick(GUIControl* control, MouseButton button)
{
  if(control == btnAvatarsGrid)  // Clicked somewhere on gAvatarsDisplay
  {
    // Figure out which avatar we're over, select that
    int avatarSlot = getAvatarSlot(mouse.x, mouse.y);
    if(avatarSlot != -1)
    {
      pAvatar avatarIndex = avatarGroupIndex[avatarSlot + avatarCurrentScreen*AVATAR_GUI_SLOTS];
      if(avatarIndex != -1)
      {
        Avatars.SetPlayerAvatar(avatarIndex);
        Avatars.HideGui();
        return avatarIndex;
      }
    }
  }
  // Clicked on button to change avatars group
  else if(control == btnAgsAvatars)
  {
    Avatars.SetupAvatarsDisplay("ags");
  }
  else if(control == btnSierraAvatars)
  {
    Avatars.SetupAvatarsDisplay("misc");
  }
  else if(control == btnLucasAvatars)
  {
    Avatars.SetupAvatarsDisplay("lucasarts");
  }
  else if(control == btnPasswordAvatars) // The "Others..." button, so bring up password prompt
  {
    lblAvatarPopup.TextColor = 15;
    lblAvatarPopup.Text = "ENTER PASSWORD";
    gAvatarsPopup.Visible = true;
    gAvatarsFrame.SetEnabled(false);
  }
  // Password prompt
  else if(control == btnAvatarPopupOk)
  {
    if(getAvatarGroupSize(txtAvatarPopupInput.Text) > 0) // ... this is a valid password
    {
      // Set the group matching password
      Avatars.SetupAvatarsDisplay(txtAvatarPopupInput.Text);
      txtAvatarPopupInput.Text = "";
      gAvatarsPopup.Visible = false;
      gAvatarsFrame.SetEnabled(true);
    }
    else  // ... invalid password
    {
      lblAvatarPopup.Text = "INVALID PASSWORD - TRY AGAIN";
      lblAvatarPopup.TextColor = 63488;
      txtAvatarPopupInput.Text = "";
    }
  }
  else if(control == btnAvatarPopupCancel)
  {
    txtAvatarPopupInput.Text = "";
    gAvatarsPopup.Visible = false;
    gAvatarsFrame.SetEnabled(true);
  }
  // Previous/next avatars screen
  else if(control == btnAvatarsPrev)
  {
    int screen = avatarCurrentScreen-1;
    if(screen >= 0)
      Avatars.SetupAvatarsDisplay(avatarGroup, screen);
  }
  else if(control == btnAvatarsNext)
  {
    int screen = avatarCurrentScreen+1;
    if(screen <= (avatarGroupSize-1)/AVATAR_GUI_SLOTS)
      Avatars.SetupAvatarsDisplay(avatarGroup, screen);
  }
}

static void Avatars::ReadProfile()
{
  String avaString = Profile.GetProperty(PROP_AVATAR);
  String colString = Profile.GetProperty(PROP_TEXT_COLOR);
  int avatar = avaString.AsInt;
  int textColor = colString.AsInt;
  Avatars.SetPlayerAvatar(avatar);
  player.SpeechColor = textColor;
  loadProfile = true;
}

static pAvatar Avatars::Find(String name)
{
  int i=0;
  while(i<AVATAR_COUNT)
  {
    if(Avatars_Avatars[i].Name == name)
      return i;
    i++;
  }
  return -1;
}

static pAvatar Avatars::Pick(String group, int n)
{
  pAvatar i=0;
  int j=0;
  bool anyOfGroup = false;
  while(j<n)
  {
    if(Avatars_Avatars[i%AVATAR_COUNT].Group == group)
    {
      anyOfGroup = true;
      j++;
    }
    i++;
    if(i%AVATAR_COUNT==0 && !anyOfGroup)
      return -1;
  }
  return i%AVATAR_COUNT;
}

static pAvatar Avatars::FindPersonal(String nick)
{
  if(String.IsNullOrEmpty(nick))
    return -1;
  int i=0;
  while(i<AVATAR_PERSONAL_COUNT)
  {
    if(!String.IsNullOrEmpty(personalAvatars[i].name) && personalAvatars[i].name == nick)
      return personalAvatars[i].avatar;
    i++;
  }
  return -1;
}

void initPersonalAvatars()
{
  int i=0;

  personalAvatars[i].name = "cat";
  personalAvatars[i].avatar = Avatars.Find("Gakusei");
  i++;

  personalAvatars[i].name = "cat_";
  personalAvatars[i].avatar = Avatars.Find("Gakusei");
  i++;
}



//////////////////////////////////////////////////////////////////////////////////////////////////////////
// AGS lifecycle events
//////////////////////////////////////////////////////////////////////////////////////////////////////////

function game_start()
{
  initAvatarData();
  initPersonalAvatars();
  disableSound();

  // Initialize the avatar selection GUI
  gAvatarsSelect.Clickable = false;
}

int oldAvatarSlot=-1;
int currentFrame=0;
int animationCounter=0;
int animationDelay=4;
function repeatedly_execute()
{
  // Draw a highlight rectangle around the sprite we're hovering over
  if (gAvatarsFrame.Visible && !gAvatarsPopup.Visible)
  {
    int avatarSlot = getAvatarSlot(mouse.x, mouse.y);
    if(avatarSlot != -1)
    {
      animationCounter++;
    }
    if(avatarSlot != oldAvatarSlot || animationCounter > animationDelay)
    {
      animationCounter = 0;
      currentFrame++;

      if(avatarSlot == -1) // Not over an avatar, hide selection
      {
        currentFrame = 0;
        gAvatarsSelect.Visible = false;
        drawAvatars(avatarSlot, currentFrame);
      }
      else
      {
        // Calculate positions for labels
        int row = avatarSlot / avatarGuiColumns;
        int rowOffset = 0;
        if(row == avatarGuiRows - 1)
          rowOffset = calculateLastRowOffset();
        int column = avatarSlot % avatarGuiColumns + rowOffset;

        pAvatar avatar = avatarGroupIndex[avatarSlot + avatarCurrentScreen*AVATAR_GUI_SLOTS];
        int frameCount = Game.GetFrameCountForLoop(Avatars_Avatars[avatar].WalkView, 0);
        animationDelay = 30/frameCount;
        if(currentFrame >= frameCount)
        {
          if(frameCount > 1)
            currentFrame = 1;
          else
            currentFrame = 0;
        }

        drawAvatars(avatarSlot, currentFrame);

        // Show the character name and source of the avatar
        gAvatarsSelect.SetPosition(btnAvatarsGrid.X + AVATARS_GUI_SIDE_BORDER + column*(AVATAR_GUI_WIDTH+AVATAR_GUI_HSPACING) - (gAvatarsSelect.Width - AVATAR_GUI_WIDTH)/2, btnAvatarsGrid.Y + AVATARS_GUI_TOP_BORDER + row*(AVATAR_GUI_HEIGHT+AVATAR_GUI_VSPACING) - (gAvatarsSelect.Height - AVATAR_GUI_HEIGHT)/2);
        lblAvatarName.Text = Avatars_Avatars[avatar].Name;
        lblAvatarDescr.Text = Avatars_Avatars[avatar].Source;
        gAvatarsSelect.Visible = true;
      }
      oldAvatarSlot = avatarSlot;
    }
  }
}